bork
…
#
house <- house_info %>% group_by(name) %>% arrange(desc(num))
house

## Source: local data frame [3,281 x 3]
## Groups: name [3,250]
## 
##                                                                            url
##                                                                          <chr>
## 1   http://www.books.com.tw/web/sys_puballb/books/?pubid=tongli&loc=P_012_1332
## 2  http://www.books.com.tw/web/sys_puballb/books/?pubid=everglory&loc=P_012_11
## 3      http://www.books.com.tw/web/sys_puballb/books/?pubid=gch&loc=P_012_2799
## 4  http://www.books.com.tw/web/sys_puballb/books/?pubid=sharppnt&loc=P_012_848
## 5     http://www.books.com.tw/web/sys_puballb/books/?pubid=homer&loc=P_012_521
## 6  http://www.books.com.tw/web/sys_puballb/books/?pubid=kadokawa&loc=P_012_536
## 7  http://www.books.com.tw/web/sys_puballb/books/?pubid=chingwin&loc=P_012_114
## 8      http://www.books.com.tw/web/sys_puballb/books/?pubid=acme&loc=P_012_460
## 9    http://www.books.com.tw/web/sys_puballb/books/?pubid=sanmin&loc=P_012_164
## 10   http://www.books.com.tw/web/sys_puballb/books/?pubid=taigu1&loc=P_012_055
## # ... with 3,271 more rows, and 2 more variables: name <fctr>, num <dbl>
…
# 
house <- house_info %>% group_by(name) %>% arrange(desc(num))

index<- c()
for(i in c(1:nrow(house)))
{
  test <- house$name[i] %in% house_month$name
  index<- c(index,test)
}
houseQ <- house[!(index),]
houseQ

## Source: local data frame [2,525 x 3]
## Groups: name [2,509]
## 
##                                                                            url
##                                                                          <chr>
## 1      http://www.books.com.tw/web/sys_puballb/books/?pubid=gch&loc=P_012_2799
## 2    http://www.books.com.tw/web/sys_puballb/books/?pubid=taigu1&loc=P_012_055
## 3  http://www.books.com.tw/web/sys_puballb/books/?pubid=doghouse&loc=P_012_116
## 4     http://www.books.com.tw/web/sys_puballb/books/?pubid=joint&loc=P_012_129
## 5   http://www.books.com.tw/web/sys_puballb/books/?pubid=hoyoung&loc=P_012_526
## 6  http://www.books.com.tw/web/sys_puballb/books/?pubid=tstudent&loc=P_012_639
## 7  http://www.books.com.tw/web/sys_puballb/books/?pubid=wunangov65&loc=P_012_9
## 8  http://www.books.com.tw/web/sys_puballb/books/?pubid=wunangov96&loc=P_012_1
## 9  http://www.books.com.tw/web/sys_puballb/books/?pubid=wenching&loc=P_012_386
## 10 http://www.books.com.tw/web/sys_puballb/books/?pubid=wanjuan&loc=P_012_2688
## # ... with 2,515 more rows, and 2 more variables: name <fctr>, num <dbl>
…
## Warning in right_join_impl(x, y, by$x, by$y, suffix$x, suffix$y): joining
## factors with different levels, coercing to character vector

house2 <- house2 %>% group_by(name) %>% arrange(desc(num))
index<- c()
for(i in c(1:nrow(house2)))
{
  test <- house2$name[i] %in% house_month$name
  index<- c(index,test)
}
houseQQ<- house2[(index),]
houseQQ %>% select(name,count_uni,num)

## Source: local data frame [756 x 3]
## Groups: name [741]
## 
##          name count_uni   num
##         <chr>     <int> <dbl>
## 1               683 33156
## 2          53  9546
## 3               618  7259
## 4                 4  6125
## 5           521  5959
## 6               164  5878
## 7                11  5670
## 8                27  5115
## 9                92  3959
## 10          100  3672
## # ... with 746 more rows
…
